id,name,email,password,age
1,Naruto Uzumaki,naruto@konoha.com,imgoingtobeahokage123,19
2,Naruto Uzumaki,nruto@konoha.com,imgoigtobeahokage123,39
3,Batatada,nruo@konoha.com,imgoigtobeahokage123,19
4,Matheus,matheus@mail.com,imgoingtobeahokage123,32
5,Tim,tim@mail.com,tim123,20
6,Tim,tim1@mail.com,tim123,43
7,Matheu,matheu@mail.com,imgoingtobeahokage123,71
